EESchema Schematic File Version 4
EELAYER 30 0
EELAYER END
$Descr A3 16535 11693
encoding utf-8
Sheet 1 1
Title ""
Date ""
Rev ""
Comp ""
Comment1 ""
Comment2 ""
Comment3 ""
Comment4 ""
$EndDescr
$Comp
L Connector_Generic:Conn_02x19_Odd_Even J1
U 1 1 60FE112D
P 3300 2700
F 0 "J1" H 3350 3817 50  0000 C CNN
F 1 "Conn_02x19_Odd_Even" H 3350 3726 50  0000 C CNN
F 2 "Connector_PinHeader_2.54mm:PinHeader_2x19_P2.54mm_Vertical" H 3300 2700 50  0001 C CNN
F 3 "~" H 3300 2700 50  0001 C CNN
	1    3300 2700
	1    0    0    -1  
$EndComp
$Comp
L Connector_Generic:Conn_01x38 J2
U 1 1 60FE12DA
P 3400 6000
F 0 "J2" H 3480 5992 50  0000 L CNN
F 1 "Conn_01x38" H 3500 5800 50  0000 L CNN
F 2 "Connector_PinHeader_2.54mm:PinHeader_1x38_P2.54mm_Vertical" H 3400 6000 50  0001 C CNN
F 3 "~" H 3400 6000 50  0001 C CNN
	1    3400 6000
	1    0    0    -1  
$EndComp
Wire Wire Line
	3100 1800 3000 1800
Wire Wire Line
	3000 1800 3000 4200
Wire Wire Line
	3000 4200 3200 4200
Wire Wire Line
	3100 1900 2900 1900
Wire Wire Line
	2900 1900 2900 4400
Wire Wire Line
	2900 4400 3200 4400
Wire Wire Line
	3100 2000 2800 2000
Wire Wire Line
	2800 2000 2800 4600
Wire Wire Line
	2800 4600 3200 4600
Wire Wire Line
	3100 2100 2700 2100
Wire Wire Line
	2700 2100 2700 4800
Wire Wire Line
	2700 4800 3200 4800
Wire Wire Line
	3100 2200 2600 2200
Wire Wire Line
	2600 2200 2600 5000
Wire Wire Line
	2600 5000 3200 5000
Wire Wire Line
	3100 2300 2500 2300
Wire Wire Line
	2500 2300 2500 5200
Wire Wire Line
	2500 5200 3200 5200
Wire Wire Line
	3100 2400 2400 2400
Wire Wire Line
	2400 2400 2400 5400
Wire Wire Line
	2400 5400 3200 5400
Wire Wire Line
	3200 5600 2300 5600
Wire Wire Line
	2300 5600 2300 2500
Wire Wire Line
	2300 2500 3100 2500
Wire Wire Line
	3100 2600 2200 2600
Wire Wire Line
	2200 2600 2200 5800
Wire Wire Line
	2200 5800 3200 5800
Wire Wire Line
	3200 6000 2100 6000
Wire Wire Line
	2100 6000 2100 2700
Wire Wire Line
	2100 2700 3100 2700
Wire Wire Line
	3100 2800 2000 2800
Wire Wire Line
	2000 2800 2000 6200
Wire Wire Line
	2000 6200 3200 6200
Wire Wire Line
	3200 6400 1900 6400
Wire Wire Line
	1900 6400 1900 2900
Wire Wire Line
	1900 2900 3100 2900
Wire Wire Line
	3100 3000 1800 3000
Wire Wire Line
	1800 3000 1800 6600
Wire Wire Line
	1800 6600 3200 6600
Wire Wire Line
	3200 6800 1700 6800
Wire Wire Line
	1700 6800 1700 3100
Wire Wire Line
	1700 3100 3100 3100
Wire Wire Line
	3100 3200 1600 3200
Wire Wire Line
	1600 3200 1600 7000
Wire Wire Line
	1600 7000 3200 7000
Wire Wire Line
	3200 7200 1500 7200
Wire Wire Line
	1500 7200 1500 3300
Wire Wire Line
	1500 3300 3100 3300
Wire Wire Line
	3100 3400 1400 3400
Wire Wire Line
	1400 3400 1400 7400
Wire Wire Line
	1400 7400 3200 7400
Wire Wire Line
	3200 7600 1300 7600
Wire Wire Line
	1300 7600 1300 3500
Wire Wire Line
	1300 3500 3100 3500
Wire Wire Line
	3100 3600 1200 3600
Wire Wire Line
	1200 3600 1200 7800
Wire Wire Line
	1200 7800 3200 7800
Wire Wire Line
	3600 1800 3700 1800
Wire Wire Line
	3700 1800 3700 4300
Wire Wire Line
	3700 4300 3200 4300
Wire Wire Line
	3600 1900 3800 1900
Wire Wire Line
	3800 1900 3800 4500
Wire Wire Line
	3800 4500 3200 4500
Wire Wire Line
	3600 2000 3900 2000
Wire Wire Line
	3900 2000 3900 4700
Wire Wire Line
	3900 4700 3200 4700
Wire Wire Line
	3600 2100 4000 2100
Wire Wire Line
	4000 2100 4000 4900
Wire Wire Line
	4000 4900 3200 4900
Wire Wire Line
	3600 2200 4100 2200
Wire Wire Line
	4100 2200 4100 5100
Wire Wire Line
	4100 5100 3200 5100
Wire Wire Line
	3600 2300 4200 2300
Wire Wire Line
	4200 2300 4200 5300
Wire Wire Line
	4200 5300 3200 5300
Wire Wire Line
	3600 2400 4300 2400
Wire Wire Line
	4300 2400 4300 5500
Wire Wire Line
	4300 5500 3200 5500
Wire Wire Line
	3200 5700 4400 5700
Wire Wire Line
	4400 5700 4400 2500
Wire Wire Line
	4400 2500 3600 2500
Wire Wire Line
	3600 2600 4500 2600
Wire Wire Line
	4500 2600 4500 5900
Wire Wire Line
	4500 5900 3200 5900
Wire Wire Line
	3200 6100 4600 6100
Wire Wire Line
	4600 6100 4600 2700
Wire Wire Line
	4600 2700 3600 2700
Wire Wire Line
	3600 2800 4700 2800
Wire Wire Line
	4700 2800 4700 6300
Wire Wire Line
	4700 6300 3200 6300
Wire Wire Line
	3200 6500 4800 6500
Wire Wire Line
	4800 6500 4800 2900
Wire Wire Line
	4800 2900 3600 2900
Wire Wire Line
	3600 3000 4900 3000
Wire Wire Line
	4900 3000 4900 6700
Wire Wire Line
	4900 6700 3200 6700
Wire Wire Line
	3200 6900 5000 6900
Wire Wire Line
	5000 6900 5000 3100
Wire Wire Line
	5000 3100 3600 3100
Wire Wire Line
	3600 3200 5100 3200
Wire Wire Line
	5100 3200 5100 7100
Wire Wire Line
	5100 7100 3200 7100
Wire Wire Line
	3200 7300 5200 7300
Wire Wire Line
	5200 7300 5200 3300
Wire Wire Line
	5200 3300 3600 3300
Wire Wire Line
	3600 3400 5300 3400
Wire Wire Line
	5300 3400 5300 7500
Wire Wire Line
	5300 7500 3200 7500
Wire Wire Line
	3200 7700 5400 7700
Wire Wire Line
	5400 7700 5400 3500
Wire Wire Line
	5400 3500 3600 3500
Wire Wire Line
	3600 3600 5500 3600
Wire Wire Line
	5500 3600 5500 7900
Wire Wire Line
	5500 7900 3200 7900
$Comp
L Connector_Generic:Conn_02x19_Odd_Even J3
U 1 1 61086B02
P 9600 2700
F 0 "J3" H 9650 3817 50  0000 C CNN
F 1 "Conn_02x19_Odd_Even" H 9650 3726 50  0000 C CNN
F 2 "Connector_PinHeader_2.54mm:PinHeader_2x19_P2.54mm_Vertical" H 9600 2700 50  0001 C CNN
F 3 "~" H 9600 2700 50  0001 C CNN
	1    9600 2700
	1    0    0    -1  
$EndComp
$Comp
L Connector_Generic:Conn_01x38 J4
U 1 1 61086B09
P 9700 6000
F 0 "J4" H 9780 5992 50  0000 L CNN
F 1 "Conn_01x38" H 9800 5800 50  0000 L CNN
F 2 "Connector_PinHeader_2.54mm:PinHeader_1x38_P2.54mm_Vertical" H 9700 6000 50  0001 C CNN
F 3 "~" H 9700 6000 50  0001 C CNN
	1    9700 6000
	1    0    0    -1  
$EndComp
Wire Wire Line
	9400 1800 9300 1800
Wire Wire Line
	9300 1800 9300 4200
Wire Wire Line
	9300 4200 9500 4200
Wire Wire Line
	9400 1900 9200 1900
Wire Wire Line
	9200 1900 9200 4400
Wire Wire Line
	9200 4400 9500 4400
Wire Wire Line
	9400 2000 9100 2000
Wire Wire Line
	9100 2000 9100 4600
Wire Wire Line
	9100 4600 9500 4600
Wire Wire Line
	9400 2100 9000 2100
Wire Wire Line
	9000 2100 9000 4800
Wire Wire Line
	9000 4800 9500 4800
Wire Wire Line
	9400 2200 8900 2200
Wire Wire Line
	8900 2200 8900 5000
Wire Wire Line
	8900 5000 9500 5000
Wire Wire Line
	9400 2300 8800 2300
Wire Wire Line
	8800 2300 8800 5200
Wire Wire Line
	8800 5200 9500 5200
Wire Wire Line
	9400 2400 8700 2400
Wire Wire Line
	8700 2400 8700 5400
Wire Wire Line
	8700 5400 9500 5400
Wire Wire Line
	9500 5600 8600 5600
Wire Wire Line
	8600 5600 8600 2500
Wire Wire Line
	8600 2500 9400 2500
Wire Wire Line
	9400 2600 8500 2600
Wire Wire Line
	8500 2600 8500 5800
Wire Wire Line
	8500 5800 9500 5800
Wire Wire Line
	9500 6000 8400 6000
Wire Wire Line
	8400 6000 8400 2700
Wire Wire Line
	8400 2700 9400 2700
Wire Wire Line
	9400 2800 8300 2800
Wire Wire Line
	8300 2800 8300 6200
Wire Wire Line
	8300 6200 9500 6200
Wire Wire Line
	9500 6400 8200 6400
Wire Wire Line
	8200 6400 8200 2900
Wire Wire Line
	8200 2900 9400 2900
Wire Wire Line
	9400 3000 8100 3000
Wire Wire Line
	8100 3000 8100 6600
Wire Wire Line
	8100 6600 9500 6600
Wire Wire Line
	9500 6800 8000 6800
Wire Wire Line
	8000 6800 8000 3100
Wire Wire Line
	8000 3100 9400 3100
Wire Wire Line
	9400 3200 7900 3200
Wire Wire Line
	7900 3200 7900 7000
Wire Wire Line
	7900 7000 9500 7000
Wire Wire Line
	9500 7200 7800 7200
Wire Wire Line
	7800 7200 7800 3300
Wire Wire Line
	7800 3300 9400 3300
Wire Wire Line
	9400 3400 7700 3400
Wire Wire Line
	7700 3400 7700 7400
Wire Wire Line
	7700 7400 9500 7400
Wire Wire Line
	9500 7600 7600 7600
Wire Wire Line
	7600 7600 7600 3500
Wire Wire Line
	7600 3500 9400 3500
Wire Wire Line
	9400 3600 7500 3600
Wire Wire Line
	7500 3600 7500 7800
Wire Wire Line
	7500 7800 9500 7800
Wire Wire Line
	9900 1800 10000 1800
Wire Wire Line
	10000 1800 10000 4300
Wire Wire Line
	10000 4300 9500 4300
Wire Wire Line
	9900 1900 10100 1900
Wire Wire Line
	10100 1900 10100 4500
Wire Wire Line
	10100 4500 9500 4500
Wire Wire Line
	9900 2000 10200 2000
Wire Wire Line
	10200 2000 10200 4700
Wire Wire Line
	10200 4700 9500 4700
Wire Wire Line
	9900 2100 10300 2100
Wire Wire Line
	10300 2100 10300 4900
Wire Wire Line
	10300 4900 9500 4900
Wire Wire Line
	9900 2200 10400 2200
Wire Wire Line
	10400 2200 10400 5100
Wire Wire Line
	10400 5100 9500 5100
Wire Wire Line
	9900 2300 10500 2300
Wire Wire Line
	10500 2300 10500 5300
Wire Wire Line
	10500 5300 9500 5300
Wire Wire Line
	9900 2400 10600 2400
Wire Wire Line
	10600 2400 10600 5500
Wire Wire Line
	10600 5500 9500 5500
Wire Wire Line
	9500 5700 10700 5700
Wire Wire Line
	10700 5700 10700 2500
Wire Wire Line
	10700 2500 9900 2500
Wire Wire Line
	9900 2600 10800 2600
Wire Wire Line
	10800 2600 10800 5900
Wire Wire Line
	10800 5900 9500 5900
Wire Wire Line
	9500 6100 10900 6100
Wire Wire Line
	10900 6100 10900 2700
Wire Wire Line
	10900 2700 9900 2700
Wire Wire Line
	9900 2800 11000 2800
Wire Wire Line
	11000 2800 11000 6300
Wire Wire Line
	11000 6300 9500 6300
Wire Wire Line
	9500 6500 11100 6500
Wire Wire Line
	11100 6500 11100 2900
Wire Wire Line
	11100 2900 9900 2900
Wire Wire Line
	9900 3000 11200 3000
Wire Wire Line
	11200 3000 11200 6700
Wire Wire Line
	11200 6700 9500 6700
Wire Wire Line
	9500 6900 11300 6900
Wire Wire Line
	11300 6900 11300 3100
Wire Wire Line
	11300 3100 9900 3100
Wire Wire Line
	9900 3200 11400 3200
Wire Wire Line
	11400 3200 11400 7100
Wire Wire Line
	11400 7100 9500 7100
Wire Wire Line
	9500 7300 11500 7300
Wire Wire Line
	11500 7300 11500 3300
Wire Wire Line
	11500 3300 9900 3300
Wire Wire Line
	9900 3400 11600 3400
Wire Wire Line
	11600 3400 11600 7500
Wire Wire Line
	11600 7500 9500 7500
Wire Wire Line
	9500 7700 11700 7700
Wire Wire Line
	11700 7700 11700 3500
Wire Wire Line
	11700 3500 9900 3500
Wire Wire Line
	9900 3600 11800 3600
Wire Wire Line
	11800 3600 11800 7900
Wire Wire Line
	11800 7900 9500 7900
$EndSCHEMATC
