G04 #@! TF.GenerationSoftware,KiCad,Pcbnew,5.99.0+really5.1.10+dfsg1-1*
G04 #@! TF.CreationDate,2021-07-31T16:25:20+10:00*
G04 #@! TF.ProjectId,nucleo64-bb,6e75636c-656f-4363-942d-62622e6b6963,rev?*
G04 #@! TF.SameCoordinates,Original*
G04 #@! TF.FileFunction,Profile,NP*
%FSLAX46Y46*%
G04 Gerber Fmt 4.6, Leading zero omitted, Abs format (unit mm)*
G04 Created by KiCad (PCBNEW 5.99.0+really5.1.10+dfsg1-1) date 2021-07-31 16:25:20*
%MOMM*%
%LPD*%
G01*
G04 APERTURE LIST*
G04 #@! TA.AperFunction,Profile*
%ADD10C,0.050000*%
G04 #@! TD*
G04 APERTURE END LIST*
D10*
X30480000Y-86804500D02*
X30480000Y-20764500D01*
X60261500Y-86804500D02*
X30480000Y-86804500D01*
X60261500Y-187769500D02*
X60261500Y-86804500D01*
X79311500Y-187769500D02*
X60261500Y-187769500D01*
X79311500Y-86804500D02*
X79311500Y-187769500D01*
X112966500Y-86804500D02*
X79311500Y-86804500D01*
X112966500Y-20764500D02*
X112966500Y-86804500D01*
X30480000Y-20764500D02*
X112966500Y-20764500D01*
M02*
